{
	"death": { "scriptFile": "death.lua" },
	"test event": { "scriptFile": "test.lua" },
	"visit village": { "scriptFile": "visit.lua" },
	"main menu": { "scriptFile": "main-menu.lua" },
	"school start": { "scriptFile": "school-start.lua" },
	"tutorial school": { "scriptFile": "tutorial-school.lua" },
	"tutorial world": { "scriptFile": "tutorial-world.lua" },
	"school hub": { "scriptFile": "school-hub.lua" },
	"lecture": { "scriptFile": "lecture.lua" },
	"party": { "scriptFile": "party.lua" },
	"sleep": { "scriptFile": "sleep.lua" },
	"exam": { "scriptFile": "exam.lua" },
	"party with evelin": { "scriptFile": "party/evelin.lua" },
	"party with amalia": { "scriptFile": "party/amalia.lua" },
	"party with michael": { "scriptFile": "party/michael.lua" },
	"party with eleanor": { "scriptFile": "party/eleanor.lua" },
	"party with amber and ember": { "scriptFile": "party/amber-ember.lua" },
	"party with seraphine": { "scriptFile": "party/seraphine.lua" },
	"party with lily": { "scriptFile": "party/lily.lua" },
	"party with claire": { "scriptFile": "party/claire.lua" },
	"party with gareth": { "scriptFile": "party/gareth.lua" },
	"party with jimmy": { "scriptFile": "party/jimmy.lua" },
	"party with apache": { "scriptFile": "party/apache.lua" },
	"battle": { "scriptFile": "battle.lua" }
}
