{
	"paper background": {
		"path": "images/oldpaper.png",
		"tilesize": [ 1600, 1200 ],
		"tilecount": 1
	},
	"background classroom": {
		"path": "images/backgrounds/classroom.jpg",
		"tilesize": [ 1920, 1080 ],
		"tilecount": 1
	},
	"background battle party": {
		"path": "images/backgrounds/battle-party.jpg",
		"tilesize": [ 1600, 825 ],
		"tilecount": 1
	},
	"background battle army": {
		"path": "images/backgrounds/battle-army.jpg",
		"tilesize": [ 1280, 906 ],
		"tilecount": 1
	},
	"background hall": {
		"path": "images/backgrounds/hall.jpg",
		"tilesize": [ 1920, 1080 ],
		"tilecount": 1
	},
	"background dark forest": {
		"path": "images/backgrounds/dark-forest.jpg",
		"tilesize": [ 1920, 1080 ],
		"tilecount": 1
	},
	"background library": {
		"path": "images/backgrounds/library.jpg",
		"tilesize": [ 1920, 956 ],
		"tilecount": 1
	},
	"background outside university": {
		"path": "images/backgrounds/university.jpg",
		"tilesize": [ 1280, 720 ],
		"tilecount": 1
	},
	"background university night": {
		"path": "images/backgrounds/university-night.jpg",
		"tilesize": [ 1920, 1041 ],
		"tilecount": 1
	},
	"background school corridor": {
		"path": "images/backgrounds/university-corridor.jpg",
		"tilesize": [ 1920, 938 ],
		"tilecount": 1
	},
	"background corridor dark": {
		"path": "images/backgrounds/corridor-dark.jpg",
		"tilesize": [ 1024, 501 ],
		"tilecount": 1
	},
	"background lab": {
		"path": "images/backgrounds/lab.jpg",
		"tilesize": [ 1100, 661 ],
		"tilecount": 1
	},
	"background ruined temple": {
		"path": "images/backgrounds/ruined-temple.png",
		"tilesize": [ 1300, 731 ],
		"tilecount": 1
	},
	"background caves": {
		"path": "images/backgrounds/caves.jpg",
		"tilesize": [ 1280, 653 ],
		"tilecount": 1
	},
	"background bedroom": {
		"path": "images/backgrounds/bedroom.jpg",
		"tilesize": [ 1570, 900 ],
		"tilecount": 1
	},
	"background tavern": {
		"path": "images/backgrounds/tavern.jpg",
		"tilesize": [ 800, 480 ],
		"tilecount": 1
	},
	"background exam classroom": {
		"path": "images/backgrounds/exam-classroom.jpg",
		"tilesize": [ 1100, 619 ],
		"tilecount": 1
	},
	"background vacation": {
		"path": "images/backgrounds/vacation.jpg",
		"tilesize": [ 1280, 720 ],
		"tilecount": 1
	},
	"character faces": {
		"path": "images/characters.png",
		"tilesize": [ 512, 512 ],
		"tilecount": 5
	},
	"name tag": {
		"path": "images/parchment-nametag.png",
		"tilesize": [ 509, 80 ],
		"tilecount": 1
	},
	"paper horizontal slip": {
		"path": "images/paper-horiz.png",
		"tilesize": [ 504, 246 ],
		"tilecount": 1
	},
	"overworld characters": {
		"path": "images/world-characters.png",
		"tilesize": [ 36, 36 ],
		"tilecount": 11
	},
	"large buildings": {
		"path": "images/large-buildings.png",
		"tilesize": [ 96, 96 ],
		"tilecount": 10
	},
	"progress meter": {
		"path": "images/progress-bar.png",
		"tilesize": [ 1895, 117 ],
		"tilecount": 3
	},
	"cursor": {
		"path": "images/cursor.png",
		"tilesize": [ 80, 90 ],
		"tilecount": 1
	}
}
